…
```r
deserts %>%
  select(species, plot_type)
```

```
## # A tibble: 34,786 × 2
##    species  plot_type                
##    <chr>    <chr>                    
##  1 albigula Control                  
##  2 albigula Long-term Krat Exclosure 
##  3 merriami Control                  
##  4 merriami Rodent Exclosure         
##  5 merriami Long-term Krat Exclosure 
##  6 flavus   Spectab exclosure        
##  7 eremicus Control                  
##  8 merriami Spectab exclosure        
##  9 merriami Spectab exclosure        
## 10 flavus   Short-term Krat Exclosure
## # … with 34,776 more rows
```
…
```
##  [1] "record_id"       "month"           "day"             "year"           
##  [5] "plot_id"         "species_id"      "sex"             "hindfoot_length"
##  [9] "weight"          "genus"           "species"         "taxa"           
## [13] "plot_type"
```

```r
deserts
```

```
## # A tibble: 34,786 × 13
##    record…¹ month   day  year plot_id speci…² sex   hindf…³ weight genus species
##       <dbl> <dbl> <dbl> <dbl>   <dbl> <chr>   <chr>   <dbl>  <dbl> <chr> <chr>  
##  1        1     7    16  1977       2 NL      M          32     NA Neot… albigu…
##  2        2     7    16  1977       3 NL      M          33     NA Neot… albigu…
##  3        3     7    16  1977       2 DM      F          37     NA Dipo… merria…
##  4        4     7    16  1977       7 DM      M          36     NA Dipo… merria…
##  5        5     7    16  1977       3 DM      M          35     NA Dipo… merria…
##  6        6     7    16  1977       1 PF      M          14     NA Pero… flavus 
##  7        7     7    16  1977       2 PE      F          NA     NA Pero… eremic…
##  8        8     7    16  1977       1 DM      M          37     NA Dipo… merria…
##  9        9     7    16  1977       1 DM      F          34     NA Dipo… merria…
## 10       10     7    16  1977       6 PF      F          20     NA Pero… flavus 
## # … with 34,776 more rows, 2 more variables: taxa <chr>, plot_type <chr>, and
## #   abbreviated variable names ¹​record_id, ²​species_id, ³​hindfoot_length
```

data is tidy!!


2. How many genera and species are represented in the data? What are the total number of observations? Which species is most/ least frequently sampled in the study?


```r
deserts %>%
  count(species) %>%
  arrange(-n)
```

```
## # A tibble: 40 × 2
##    species          n
##    <chr>        <int>
##  1 merriami     10596
##  2 penicillatus  3123
##  3 ordii         3027
##  4 baileyi       2891
##  5 megalotis     2609
##  6 spectabilis   2504
##  7 torridus      2249
##  8 flavus        1597
##  9 eremicus      1299
## 10 albigula      1252
## # … with 30 more rows
```
40 species are represented in the data. Merriami is the most frequently sampled and clarki, scutalatus, tereticaudus, tigris, uniparens, and viridis are the least sampled.



```r
deserts %>%
  count(genus) %>%
  arrange(-n)
```

```
## # A tibble: 26 × 2
##    genus                n
##    <chr>            <int>
##  1 Dipodomys        16167
##  2 Chaetodipus       6029
##  3 Onychomys         3267
##  4 Reithrodontomys   2694
##  5 Peromyscus        2234
##  6 Perognathus       1629
##  7 Neotoma           1252
##  8 Ammospermophilus   437
##  9 Amphispiza         303
## 10 Spermophilus       249
## # … with 16 more rows
```
…
5. What is the range of weight for each species included in the study? Remove any observations of weight that are NA so they do not show up in the plot.


```r
deserts %>%
  select(species, species_id, weight, hindfoot_length) %>%
  group_by(species_id) %>% 
  filter(weight!= "NA")%>%
  summarise(min_weight = min(weight),
            max_weight = max(weight))
```

```
## # A tibble: 25 × 3
##    species_id min_weight max_weight
##    <chr>           <dbl>      <dbl>
##  1 BA                  6         18
##  2 DM                 10         66
##  3 DO                 12         76
##  4 DS                 12        190
##  5 NL                 30        280
##  6 OL                 10         56
##  7 OT                  5         46
##  8 OX                 18         24
##  9 PB                 12         55
## 10 PE                  8         40
## # … with 15 more rows
```
…
