…
```
## Rows: 494
## Columns: 3
## $ bear.id   <dbl> 7, 57, 69, 75, 104, 108, 115, 116, 125, 135, 137, 162, 185, …
## $ longitude <dbl> -148.9560, -152.6228, -144.9374, -152.8485, -143.2948, -149.…
## $ latitude  <dbl> 62.65822, 58.35064, 62.38227, 59.90122, 61.07311, 62.91605, …
```

```r
grizzly
```

```
## # A tibble: 494 × 3
##    bear.id longitude latitude
##      <dbl>     <dbl>    <dbl>
##  1       7     -149.     62.7
##  2      57     -153.     58.4
##  3      69     -145.     62.4
##  4      75     -153.     59.9
##  5     104     -143.     61.1
##  6     108     -150.     62.9
##  7     115     -152.     68.0
##  8     116     -147.     62.6
##  9     125     -157.     60.2
## 10     135     -156.     58.9
## # … with 484 more rows
```
…
```r
wolves
```

```
## # A tibble: 1,986 × 23
##    pop     year age.cat sex   color   lat  long habitat human pop.dens…¹ pack.…²
##    <chr>  <dbl> <chr>   <chr> <chr> <dbl> <dbl>   <dbl> <dbl>      <dbl>   <dbl>
##  1 AK.PEN  2006 S       F     G      57.0 -158.    254.  10.4          8    8.78
##  2 AK.PEN  2006 S       M     G      57.0 -158.    254.  10.4          8    8.78
##  3 AK.PEN  2006 A       F     G      57.0 -158.    254.  10.4          8    8.78
##  4 AK.PEN  2006 S       M     B      57.0 -158.    254.  10.4          8    8.78
##  5 AK.PEN  2006 A       M     B      57.0 -158.    254.  10.4          8    8.78
##  6 AK.PEN  2006 A       M     G      57.0 -158.    254.  10.4          8    8.78
##  7 AK.PEN  2006 A       F     G      57.0 -158.    254.  10.4          8    8.78
##  8 AK.PEN  2006 P       M     G      57.0 -158.    254.  10.4          8    8.78
##  9 AK.PEN  2006 S       F     G      57.0 -158.    254.  10.4          8    8.78
## 10 AK.PEN  2006 P       M     G      57.0 -158.    254.  10.4          8    8.78
## # … with 1,976 more rows, 12 more variables: standard.habitat <dbl>,
## #   standard.human <dbl>, standard.pop <dbl>, standard.packsize <dbl>,
## #   standard.latitude <dbl>, standard.longitude <dbl>, cav.binary <dbl>,
## #   cdv.binary <dbl>, cpv.binary <dbl>, chv.binary <dbl>, neo.binary <dbl>,
## #   toxo.binary <dbl>, and abbreviated variable names ¹​pop.density, ²​pack.size
```
…
```r
wolves_new <- wolves %>%
  filter(lat<=49) %>%
  filter(long>=-131.3)
wolves_new
```

```
## # A tibble: 1,169 × 23
##    pop    year age.cat sex   color   lat  long habitat human pop.density pack.…¹
##    <chr> <dbl> <chr>   <chr> <chr> <dbl> <dbl>   <dbl> <dbl>       <dbl>   <dbl>
##  1 GTNP   2012 P       M     G      43.8 -111.  10375. 3924.        34.0     8.1
##  2 GTNP   2012 P       F     G      43.8 -111.  10375. 3924.        34.0     8.1
##  3 GTNP   2012 P       F     G      43.8 -111.  10375. 3924.        34.0     8.1
##  4 GTNP   2012 P       M     B      43.8 -111.  10375. 3924.        34.0     8.1
##  5 GTNP   2013 A       F     G      43.8 -111.  10375. 3924.        34.0     8.1
##  6 GTNP   2013 A       M     G      43.8 -111.  10375. 3924.        34.0     8.1
##  7 GTNP   2013 P       M     G      43.8 -111.  10375. 3924.        34.0     8.1
##  8 GTNP   2013 P       M     G      43.8 -111.  10375. 3924.        34.0     8.1
##  9 GTNP   2013 P       M     G      43.8 -111.  10375. 3924.        34.0     8.1
## 10 GTNP   2013 P       F     G      43.8 -111.  10375. 3924.        34.0     8.1
## # … with 1,159 more rows, 12 more variables: standard.habitat <dbl>,
## #   standard.human <dbl>, standard.pop <dbl>, standard.packsize <dbl>,
## #   standard.latitude <dbl>, standard.longitude <dbl>, cav.binary <dbl>,
## #   cdv.binary <dbl>, cpv.binary <dbl>, chv.binary <dbl>, neo.binary <dbl>,
## #   toxo.binary <dbl>, and abbreviated variable name ¹​pack.size
```
…
